{
    "name": "custom.python.processnumber",
    "version": "3.7",
    "type": "python",
    "entity": "PROCESS_GROUP_INSTANCE",
    "processTypeNames": [
        "PYTHON"
    ],
    "source": {
        "package": "plugin_processnumber",
        "className": "ProcessNumber",
        "install_requires": [],
        "activation": "Singleton"
    },
    "metrics": [
        {
            "timeseries": {
                "key": "processnum1234",
                "unit": "Count",
                "displayname": "Number of open processes"
            }
        }
    ],
    "ui": {
        "keymetrics": [],
        "keycharts": [],
        "charts": []
    },
    "configUI": {
        "displayName": "ProcessNumber",
        "properties": []
    },
    "properties": []
}